{
	"hosting": {
		"S3AndCloudFront": {
			"service": "S3AndCloudFront",
			"providerPlugin": "awscloudformation"
		}
	},
	"auth": {
		"cognito775104c2": {
			"service": "Cognito",
			"providerPlugin": "awscloudformation"
		}
	}
}